pe\com\belatrix\property\PropertyManager.class
pe\com\belatrix\database\FactoryDBConnection.class
pe\com\belatrix\implement\LogMessageConsole.class
pe\com\belatrix\logmessageapp\JobLoggerRefactoring.class
pe\com\belatrix\implement\LogMessageFile.class
pe\com\belatrix\interfaz\LogMessage.class
pe\com\belatrix\implement\LogMessageDataBase.class
pe\com\belatrix\model\MessageProcessed.class
pe\com\belatrix\model\Message.class
